{
    "SpSiteForCodeGenAndTests": {
        "Url": "http://zubov-vm02/",
        "Domain": "I-SYS",
        "UserName": "dt-tst-1",
        "Password": "PassW0rd"
    },
    "SettinsSample": [ {} ]
}
